[
  {
    "_id": "1",
    "name": "SINTESIS",
    "parameters":
      {
        "username": "luka",
        "password": "Pakare2017",
        "transactionSource": "LUKA",
        "initializeSessionURL": "http://test.sintesis.com.bo/SintesisIntegradoRest/integrado/integrado/iniciarSesion",
        "verifySessionURL": "http://test.sintesis.com.bo/SintesisIntegradoRest/integrado/integrado/sesionEstaActiva",
        "getBillsURL": "http://test.sintesis.com.bo/SintesisIntegradoRest/integrado/integrado/obtenerItemsDeCuenta",
        "payBillURL": "http://test.sintesis.com.bo/SintesisIntegradoRest/integrado/integrado/registrarPago"
      }
  }
]
