[
  {
    "_id":1,
    "lukatag": "@entel",
    "storeId": "1",
    "name": "Entel",
    "shortName": "Entel",
    "identificationType": "NIT",
    "identificationNumber": "12234",
    "description": "Entel telecom",
    "phone":	"",
    "email":	"",
    "website":	"",
    "country": "Bolivia",
    "countryCode": "BO",
    "city": "",
    "streetAddress": "",
    "postalCode": "",
    "contact":
      {
        "firstName": "",
        "lastName": "",
        "mobilePhone": "",
        "email": "",
        "description": ""
      }
  },
  {
    "_id":2,
    "lukatag": "@telecel",
    "storeId": "2",
    "name": "Telecel",
    "shortName": "Telecel",
    "identificationType": "NIT",
    "identificationNumber": "212221",
    "description": "Telecel telecom",
    "phone":	"",
    "email":	"",
    "website":	"",
    "country": "Bolivia",
    "countryCode": "BO",
    "city": "",
    "streetAddress": "",
    "postalCode": "",
    "contact":
      {
        "firstName": "",
        "lastName": "",
        "mobilePhone": "",
        "email": "",
        "description": ""
      }
  },
  {
    "_id":3,
    "lukatag": "@nuevatel",
    "storeId": "3",
    "name": "NUEVATEL",
    "shortName": "NUEVATEL",
    "identificationType": "NIT",
    "identificationNumber": "23432432",
    "description": "NUEVATEL telecom",
    "phone":	"",
    "email":	"",
    "website":	"",
    "country": "Bolivia",
    "countryCode": "BO",
    "city": "",
    "streetAddress": "",
    "postalCode": "",
    "contact":
      {
        "firstName": "",
        "lastName": "",
        "mobilePhone": "",
        "email": "",
        "description": ""
      }
  },
  {
    "_id":4,
    "lukatag": "@ypfb",
    "storeId": "4",
    "name": "YPFB",
    "shortName": "YPFB",
    "identificationType": "NIT",
    "identificationNumber": "4333433",
    "description": "YPFB gas",
    "phone":	"",
    "email":	"",
    "website":	"",
    "country": "Bolivia",
    "countryCode": "BO",
    "city": "",
    "streetAddress": "",
    "postalCode": "",
    "contact":
      {
        "firstName": "",
        "lastName": "",
        "mobilePhone": "",
        "email": "",
        "description": ""
      }
  },
  {
    "_id":5,
    "lukatag": "@yanbal",
    "storeId": "5",
    "name": "Yanbal",
    "shortName": "Yanbal",
    "identificationType": "NIT",
    "identificationNumber": "32323233",
    "description": "Yanbal",
    "phone":	"",
    "email":	"",
    "website":	"",
    "country": "Bolivia",
    "countryCode": "BO",
    "city": "",
    "streetAddress": "",
    "postalCode": "",
    "contact":
      {
        "firstName": "",
        "lastName": "",
        "mobilePhone": "",
        "email": "",
        "description": ""
      }
  },
  {
    "_id":6,
    "lukatag": "@kuna",
    "storeId": "6",
    "name": "KUNA Restaurant",
    "shortName": "KUNA",
    "identificationType": "NIT",
    "identificationNumber": "32323233",
    "description": "KUNA Restaurant",
    "phone":	"",
    "email":	"",
    "website":	"",
    "country": "Colombia",
    "countryCode": "CO",
    "city": "",
    "streetAddress": "",
    "postalCode": "",
    "contact":
      {
        "firstName": "",
        "lastName": "",
        "mobilePhone": "",
        "email": "",
        "description": ""
      }
  }
]
